<?xml version="1.0" encoding="UTF-8"?>
<!DOCTYPE svg PUBLIC "-//W3C//DTD SVG 1.1//EN" "http://www.w3.org/Graphics/SVG/1.1/DTD/svg11.dtd">
<!-- Creator: CorelDRAW X6 -->
<svg xmlns="http://www.w3.org/2000/svg" xml:space="preserve" width="82.7292mm" height="41.4365mm" version="1.1" style="shape-rendering:geometricPrecision; text-rendering:geometricPrecision; image-rendering:optimizeQuality; fill-rule:evenodd; clip-rule:evenodd"
viewBox="0 0 12892 6457"
 xmlns:xlink="http://www.w3.org/1999/xlink">
 <defs>
  <style type="text/css">
   <![CDATA[
    .fil0 {fill:#212427}
    .fil6 {fill:#51A7C0}
    .fil4 {fill:#666666}
    .fil3 {fill:#8E8B92}
    .fil8 {fill:#B3D7A2}
    .fil5 {fill:#E44659}
    .fil7 {fill:#FBA377}
    .fil1 {fill:white}
    .fil2 {fill:white;fill-rule:nonzero}
   ]]>
  </style>
 </defs>
 <g id="Layer_x0020_1">
  <metadata id="CorelCorpID_0Corel-Layer"/>
  <rect class="fil0" width="12892" height="6457"/>
  <path class="fil1" d="M840 1302l149 0 -96 266 370 -266 45 0c26,0 51,-2 76,-6 -27,-53 -43,-112 -43,-176 0,-210 172,-382 382,-382l28 0c-49,-200 -230,-349 -444,-349l-467 0c-251,0 -457,206 -457,457l0 0c0,251 206,457 457,457zm1172 136l-68 0 67 185 -258 -185 -31 0c-175,0 -318,-143 -318,-318l0 0c0,-175 143,-318 318,-318l290 0c175,0 318,143 318,318l0 0c0,175 -143,318 -318,318z"/>
  <path class="fil2" d="M3074 5509l0 128c0,17 -2,31 -5,41 -3,10 -10,19 -19,28 -9,8 -21,16 -35,24 -40,22 -79,38 -117,48 -37,10 -78,15 -122,15 -51,0 -98,-8 -141,-24 -42,-16 -78,-39 -108,-69 -30,-30 -53,-67 -69,-109 -16,-43 -24,-91 -24,-144 0,-52 8,-100 23,-143 16,-43 38,-80 69,-110 30,-30 67,-53 110,-69 43,-16 92,-24 147,-24 45,0 85,6 120,18 35,12 63,27 84,45 22,18 38,38 49,58 11,20 16,38 16,54 0,17 -6,31 -19,43 -13,12 -28,18 -46,18 -10,0 -19,-2 -28,-7 -9,-5 -17,-11 -23,-19 -17,-26 -31,-46 -42,-59 -12,-13 -27,-25 -47,-34 -20,-9 -45,-14 -75,-14 -31,0 -59,5 -84,16 -25,11 -46,26 -63,47 -17,20 -31,46 -40,75 -9,30 -14,63 -14,99 0,79 18,139 54,181 36,42 86,63 151,63 31,0 61,-4 88,-12 27,-8 55,-20 84,-35l0 -109 -105 0c-25,0 -44,-4 -57,-11 -13,-8 -19,-21 -19,-39 0,-15 5,-27 16,-37 11,-10 25,-15 44,-15l154 0c19,0 35,2 48,5 13,3 24,11 32,22 8,12 12,29 12,52z"/>
  <path id="1" class="fil2" d="M3661 5539c0,37 -6,71 -17,103 -12,31 -28,58 -50,81 -22,23 -48,40 -79,52 -30,12 -65,18 -103,18 -38,0 -72,-6 -102,-18 -30,-12 -56,-30 -78,-52 -22,-23 -39,-49 -50,-80 -11,-31 -17,-65 -17,-103 0,-38 6,-72 17,-104 12,-31 28,-58 50,-80 22,-22 48,-39 79,-51 31,-12 65,-18 102,-18 38,0 72,6 103,18 31,12 57,30 79,52 22,22 39,49 50,80 11,31 17,65 17,103zm-125 0c0,-51 -11,-90 -34,-119 -22,-28 -52,-42 -90,-42 -24,0 -46,6 -64,19 -19,13 -33,31 -43,56 -10,25 -15,53 -15,86 0,33 5,61 15,85 10,24 24,43 42,56 18,13 40,19 65,19 38,0 68,-14 90,-43 22,-28 34,-68 34,-118z"/>
  <path id="2" class="fil2" d="M4226 5539c0,37 -6,71 -17,103 -12,31 -28,58 -50,81 -22,23 -48,40 -79,52 -30,12 -65,18 -103,18 -38,0 -72,-6 -102,-18 -30,-12 -56,-30 -78,-52 -22,-23 -39,-49 -50,-80 -11,-31 -17,-65 -17,-103 0,-38 6,-72 17,-104 12,-31 28,-58 50,-80 22,-22 48,-39 79,-51 31,-12 65,-18 102,-18 38,0 72,6 103,18 31,12 57,30 79,52 22,22 39,49 50,80 11,31 17,65 17,103zm-125 0c0,-51 -11,-90 -34,-119 -22,-28 -52,-42 -90,-42 -24,0 -46,6 -64,19 -19,13 -33,31 -43,56 -10,25 -15,53 -15,86 0,33 5,61 15,85 10,24 24,43 42,56 18,13 40,19 65,19 38,0 68,-14 90,-43 22,-28 34,-68 34,-118z"/>
  <path id="3" class="fil2" d="M4783 5377l0 362c0,41 -4,77 -13,107 -9,30 -23,55 -42,74 -19,19 -45,34 -77,43 -31,10 -71,14 -118,14 -43,0 -81,-6 -115,-18 -34,-12 -60,-28 -78,-47 -18,-19 -27,-38 -27,-59 0,-15 5,-28 15,-37 10,-10 23,-14 38,-14 18,0 34,8 48,24 7,8 14,16 21,25 7,8 15,15 24,21 9,6 19,10 31,13 12,3 26,4 42,4 32,0 57,-5 75,-13 18,-9 30,-22 37,-38 7,-16 11,-33 13,-52 1,-18 2,-48 3,-89 -19,27 -41,47 -66,61 -25,14 -55,21 -90,21 -42,0 -78,-11 -109,-32 -31,-21 -55,-51 -72,-90 -17,-38 -25,-83 -25,-133 0,-38 5,-71 15,-101 10,-30 25,-56 44,-76 19,-21 41,-36 65,-47 25,-10 52,-16 81,-16 35,0 66,7 92,20 26,14 50,35 72,64l0 -17c0,-22 5,-38 16,-50 11,-12 24,-18 41,-18 24,0 40,8 48,24 8,16 12,38 12,68zm-361 158c0,51 11,89 33,115 22,26 51,39 86,39 21,0 40,-6 59,-17 18,-11 33,-28 45,-50 12,-22 17,-50 17,-82 0,-51 -11,-90 -34,-119 -22,-28 -52,-42 -88,-42 -36,0 -64,14 -86,41 -21,27 -32,66 -32,115z"/>
  <path id="4" class="fil2" d="M4896 5716l0 -541c0,-25 6,-44 17,-57 11,-13 26,-19 45,-19 19,0 34,6 46,19 12,13 17,31 17,57l0 541c0,25 -6,44 -18,57 -12,13 -27,19 -45,19 -18,0 -33,-7 -44,-20 -11,-13 -17,-32 -17,-56z"/>
  <path id="5" class="fil2" d="M5498 5570l-244 0c0,28 6,53 17,75 11,22 26,38 44,49 18,11 39,17 61,17 15,0 29,-2 41,-5 12,-3 24,-9 36,-16 12,-7 22,-15 32,-24 10,-9 22,-20 38,-35 6,-5 15,-8 27,-8 13,0 23,4 31,11 8,7 12,17 12,30 0,11 -5,24 -13,39 -9,15 -22,29 -40,43 -18,14 -40,25 -67,34 -27,9 -58,14 -93,14 -80,0 -142,-23 -187,-69 -44,-46 -67,-108 -67,-186 0,-37 5,-71 16,-103 11,-31 27,-58 48,-81 21,-22 47,-40 78,-52 31,-12 65,-18 102,-18 49,0 91,10 125,31 35,21 61,47 78,80 17,33 26,66 26,100 0,31 -9,52 -27,61 -18,9 -43,14 -76,14zm-244 -71l226 0c-3,-43 -14,-74 -34,-96 -20,-21 -46,-32 -79,-32 -31,0 -57,11 -77,32 -20,22 -32,53 -36,95z"/>
  <path id="6" class="fil2" d="M6208 5520l-124 0 0 190c0,27 -6,48 -19,62 -13,14 -29,21 -48,21 -20,0 -37,-7 -49,-21 -12,-14 -19,-34 -19,-61l0 -516c0,-30 7,-51 21,-64 14,-13 35,-19 65,-19l174 0c51,0 91,4 119,12 27,8 51,20 71,38 20,18 35,39 45,65 10,26 16,54 16,86 0,68 -21,120 -63,155 -42,35 -105,53 -188,53zm-33 -307l-91 0 0 205 91 0c32,0 59,-3 80,-10 21,-7 38,-18 49,-33 11,-15 17,-35 17,-60 0,-30 -9,-54 -26,-72 -19,-20 -60,-30 -120,-30z"/>
  <path id="7" class="fil2" d="M6563 5716l0 -541c0,-25 6,-44 17,-57 11,-13 26,-19 45,-19 19,0 34,6 46,19 12,13 17,31 17,57l0 541c0,25 -6,44 -18,57 -12,13 -27,19 -45,19 -18,0 -33,-7 -44,-20 -11,-13 -17,-32 -17,-56z"/>
  <path id="8" class="fil2" d="M7132 5722c-30,23 -59,41 -87,53 -28,12 -60,17 -95,17 -32,0 -60,-6 -84,-19 -24,-13 -43,-30 -56,-51 -13,-22 -20,-45 -20,-70 0,-34 11,-63 32,-87 22,-24 51,-40 89,-48 8,-2 27,-6 59,-12 31,-6 58,-12 81,-18 22,-5 47,-12 73,-19 -2,-33 -8,-57 -20,-72 -12,-15 -36,-23 -73,-23 -32,0 -55,4 -71,13 -16,9 -30,22 -41,40 -11,18 -19,29 -24,35 -5,6 -15,8 -30,8 -14,0 -26,-5 -36,-14 -10,-9 -15,-20 -15,-34 0,-22 8,-43 23,-64 16,-21 40,-38 73,-51 33,-13 74,-20 123,-20 55,0 98,7 129,19 31,13 53,33 66,61 13,28 19,65 19,111 0,29 0,54 0,75 0,20 0,43 -1,68 0,23 4,48 12,73 8,25 12,42 12,49 0,13 -6,24 -18,35 -12,10 -26,16 -41,16 -13,0 -25,-6 -38,-18 -12,-12 -26,-29 -40,-52zm-8 -181c-18,7 -45,14 -80,21 -35,7 -59,13 -72,17 -13,4 -26,10 -38,21 -12,10 -18,24 -18,43 0,19 7,35 22,48 14,13 33,20 56,20 25,0 47,-5 68,-16 21,-11 36,-25 46,-42 11,-19 17,-50 17,-93l0 -18z"/>
  <path id="9" class="fil2" d="M7475 5808l12 -28 -153 -386c-10,-22 -14,-39 -14,-48 0,-11 3,-21 8,-30 5,-9 13,-16 23,-22 10,-5 19,-8 30,-8 18,0 32,6 41,17 9,11 17,28 24,49l106 307 100 -285c8,-23 15,-41 22,-54 6,-13 13,-22 20,-26 7,-5 17,-7 30,-7 9,0 18,2 27,7 9,5 15,12 20,20 5,8 7,17 7,27 -1,6 -3,14 -6,25 -3,11 -6,22 -10,32l-163 426c-14,38 -28,67 -41,88 -13,21 -31,38 -53,49 -22,11 -52,17 -89,17 -36,0 -64,-4 -82,-12 -18,-8 -27,-22 -27,-43 0,-14 4,-25 13,-33 9,-8 22,-12 39,-12 7,0 13,1 20,3 8,2 15,3 21,3 14,0 26,-2 34,-6 8,-4 16,-12 22,-22 7,-11 14,-26 23,-46z"/>
  <path id="10" class="fil2" d="M8618 5580c0,40 -10,77 -31,109 -21,32 -51,58 -91,76 -40,18 -88,27 -143,27 -66,0 -121,-12 -163,-37 -30,-18 -55,-42 -74,-72 -19,-30 -29,-59 -29,-87 0,-16 6,-30 17,-42 11,-12 26,-17 43,-17 14,0 26,5 36,14 10,9 18,23 25,41 8,21 18,39 28,53 10,14 24,26 42,36 18,9 42,14 71,14 40,0 73,-9 98,-28 25,-19 38,-42 38,-70 0,-22 -7,-40 -20,-54 -14,-14 -31,-24 -53,-32 -21,-7 -50,-15 -86,-23 -48,-11 -88,-24 -121,-39 -32,-15 -58,-36 -77,-62 -19,-26 -29,-58 -29,-97 0,-37 10,-70 30,-98 20,-29 49,-51 87,-66 38,-15 83,-23 134,-23 41,0 77,5 107,15 30,10 55,24 75,41 20,17 34,35 43,53 9,19 14,37 14,54 0,16 -6,31 -17,44 -11,13 -26,19 -43,19 -16,0 -27,-4 -35,-12 -8,-8 -17,-21 -26,-38 -12,-25 -27,-45 -44,-59 -17,-14 -44,-21 -82,-21 -35,0 -63,8 -85,23 -22,15 -32,34 -32,55 0,13 4,25 11,35 7,10 17,18 30,25 13,7 26,12 39,17 13,4 35,10 65,17 38,9 72,19 103,29 31,11 57,24 78,39 22,15 38,34 50,58 12,23 18,52 18,86z"/>
  <path id="11" class="fil2" d="M8731 5296l14 0 0 -75c0,-20 0,-36 2,-47 1,-12 4,-21 9,-29 5,-9 12,-16 21,-21 9,-5 19,-8 31,-8 16,0 30,6 43,18 9,8 14,18 16,29 2,11 3,28 3,49l0 85 46 0c18,0 31,4 40,12 9,8 14,19 14,32 0,17 -7,29 -20,35 -13,7 -32,10 -57,10l-23 0 0 229c0,19 1,35 2,45 1,10 5,19 11,26 6,7 16,10 29,10 7,0 17,-1 30,-4 12,-2 22,-4 29,-4 10,0 19,4 27,12 8,8 12,18 12,30 0,20 -11,35 -33,46 -22,11 -53,16 -95,16 -39,0 -68,-7 -88,-20 -20,-13 -33,-31 -39,-54 -6,-23 -9,-54 -9,-93l0 -239 -16 0c-18,0 -32,-4 -41,-13 -10,-8 -14,-19 -14,-32 0,-13 5,-24 15,-32 10,-8 24,-12 43,-12z"/>
  <path id="12" class="fil2" d="M9522 5539c0,37 -6,71 -17,103 -12,31 -28,58 -50,81 -22,23 -48,40 -79,52 -30,12 -65,18 -103,18 -38,0 -72,-6 -102,-18 -30,-12 -56,-30 -78,-52 -22,-23 -39,-49 -50,-80 -11,-31 -17,-65 -17,-103 0,-38 6,-72 17,-104 12,-31 28,-58 50,-80 22,-22 48,-39 79,-51 31,-12 65,-18 102,-18 38,0 72,6 103,18 31,12 57,30 79,52 22,22 39,49 50,80 11,31 17,65 17,103zm-125 0c0,-51 -11,-90 -34,-119 -22,-28 -52,-42 -90,-42 -24,0 -46,6 -64,19 -19,13 -33,31 -43,56 -10,25 -15,53 -15,86 0,33 5,61 15,85 10,24 24,43 42,56 18,13 40,19 65,19 38,0 68,-14 90,-43 22,-28 34,-68 34,-118z"/>
  <path id="13" class="fil2" d="M9744 5612l0 104c0,25 -6,44 -18,57 -12,13 -27,19 -45,19 -18,0 -33,-6 -44,-19 -12,-13 -17,-32 -17,-57l0 -347c0,-56 20,-84 61,-84 21,0 36,7 45,20 9,13 14,33 15,58 15,-26 30,-45 46,-58 16,-13 37,-20 63,-20 26,0 52,7 76,20 25,13 37,31 37,52 0,15 -5,28 -16,38 -10,10 -22,15 -34,15 -5,0 -16,-3 -33,-8 -18,-6 -33,-8 -46,-8 -18,0 -33,5 -45,14 -12,10 -21,24 -27,43 -6,19 -11,41 -13,67 -2,26 -4,58 -4,95z"/>
  <path id="14" class="fil2" d="M10354 5570l-244 0c0,28 6,53 17,75 11,22 26,38 44,49 18,11 39,17 61,17 15,0 29,-2 41,-5 12,-3 24,-9 36,-16 12,-7 22,-15 32,-24 10,-9 22,-20 38,-35 6,-5 15,-8 27,-8 13,0 23,4 31,11 8,7 12,17 12,30 0,11 -5,24 -13,39 -9,15 -22,29 -40,43 -18,14 -40,25 -67,34 -27,9 -58,14 -93,14 -80,0 -142,-23 -187,-69 -44,-46 -67,-108 -67,-186 0,-37 5,-71 16,-103 11,-31 27,-58 48,-81 21,-22 47,-40 78,-52 31,-12 65,-18 102,-18 49,0 91,10 125,31 35,21 61,47 78,80 17,33 26,66 26,100 0,31 -9,52 -27,61 -18,9 -43,14 -76,14zm-244 -71l226 0c-3,-43 -14,-74 -34,-96 -20,-21 -46,-32 -79,-32 -31,0 -57,11 -77,32 -20,22 -32,53 -36,95z"/>
  <g id="_510073984">
   <path class="fil1" d="M4291 4558c56,-1074 38,-2144 -23,-3210l221 -112 -20 -112 3894 0 -20 112 221 112c-62,1067 -79,2136 -23,3210l-4250 0z"/>
   <path class="fil3" d="M4359 1370c1364,0 2727,0 4091,0l-200 -126 19 -85c-1243,0 -2485,0 -3728,0l19 85 -200 126z"/>
   <path class="fil4" d="M7395 1370l0 332c0,57 -47,104 -104,104 -57,0 -104,-47 -104,-104l0 -332 208 0zm-1799 0l0 332c0,57 -47,104 -104,104 -57,0 -104,-47 -104,-104l0 -332 208 0z"/>
   <path class="fil1" d="M7367 1311c0,-539 -437,-976 -976,-976 -539,0 -976,437 -976,976l0 1 0 75 0 122 0 193c0,42 34,76 76,76l0 0c42,0 76,-34 76,-76l0 -193 0 -122 0 -76 0 0c0,-455 369,-823 824,-823 455,0 824,369 824,823l0 0 0 76 0 122 0 193c0,42 34,76 76,76l0 0c42,0 76,-34 76,-76l0 -193 0 -122 0 -76 0 0z"/>
   <g>
    <polygon class="fil5" points="6803,3400 5663,4059 5650,4066 6509,3089 "/>
    <path class="fil6" d="M6509 3089l-858 977 -31 18c-6,4 -14,6 -21,6 -23,0 -42,-19 -42,-42l0 -1880c0,-22 17,-41 39,-42l913 964z"/>
    <path class="fil7" d="M6768 2794l-258 294 -1 1 295 311 0 0 443 -256c7,-4 12,-9 16,-16 12,-20 5,-46 -15,-58l-479 -277 -1 0z"/>
    <path class="fil8" d="M5599 2125c1,0 2,0 3,0 5,0 11,2 15,4l0 0c1,1 3,2 4,2l1146 662 -258 294 -1 1 -913 -964c1,0 2,0 3,0z"/>
   </g>
  </g>
 </g>
</svg>
