<?xml version="1.0" encoding="UTF-8"?>
<!DOCTYPE svg PUBLIC "-//W3C//DTD SVG 1.1//EN" "http://www.w3.org/Graphics/SVG/1.1/DTD/svg11.dtd">
<!-- Creator: CorelDRAW X6 -->
<svg xmlns="http://www.w3.org/2000/svg" xml:space="preserve" width="104.728mm" height="51.1526mm" version="1.1" style="shape-rendering:geometricPrecision; text-rendering:geometricPrecision; image-rendering:optimizeQuality; fill-rule:evenodd; clip-rule:evenodd"
viewBox="0 0 13163 6429"
 xmlns:xlink="http://www.w3.org/1999/xlink"
 inkscape:export-filename="/datas/Projs/Cliparts Stocker/erlenmeyer.png"
 inkscape:export-xdpi="72.000000"
 inkscape:export-ydpi="72.000000"
 inkscape:version="0.41"
 sodipodi:docbase="/datas/Projs/Cliparts Stocker"
 sodipodi:docname="erlenmeyer.svg"
 sodipodi:version="0.32"
 xmlns:cc="http://web.resource.org/cc/"
 xmlns:dc="http://purl.org/dc/elements/1.1/"
 xmlns:inkscape="http://www.inkscape.org/namespaces/inkscape"
 xmlns:rdf="http://www.w3.org/1999/02/22-rdf-syntax-ns#"
 xmlns:sodipodi="http://inkscape.sourceforge.net/DTD/sodipodi-0.dtd"
 xmlns:svg="http://www.w3.org/2000/svg">
 <defs>
  <style type="text/css">
   <![CDATA[
    .fil4 {fill:#0094DA}
    .fil3 {fill:#D7E9FC}
    .fil5 {fill:white}
    .fil2 {fill:#120237;fill-rule:nonzero}
    .fil6 {fill:black;fill-opacity:0.176471}
    .fil1 {fill:white;fill-rule:nonzero;fill-opacity:0.501961}
    .fil0 {fill:url(#id0)}
   ]]>
  </style>
  <linearGradient id="id0" gradientUnits="userSpaceOnUse" x1="2183.92" y1="7247.85" x2="9789.65" y2="-818.827">
   <stop offset="0" style="stop-color:#0D0036"/>
   <stop offset="1" style="stop-color:#642E4C"/>
  </linearGradient>
 </defs>
 <g id="Layer_x0020_1">
  <metadata id="CorelCorpID_0Corel-Layer"/>
  <path class="fil0" d="M9669 5817l120 0 -78 214 298 -214 36 0c21,0 41,-2 61,-5 -22,-42 -35,-91 -35,-142 0,-170 139,-308 308,-308l23 0c-39,-161 -185,-282 -358,-282l-376 0c-203,0 -368,166 -368,368l0 0c0,203 166,368 368,368zm-6910 -2778l348 0 -226 624 868 -624 105 0c61,0 120,-5 178,-15 -64,-124 -101,-264 -101,-412 0,-494 403,-897 897,-897l67 0c-114,-468 -539,-819 -1041,-819l-1095 0c-589,0 -1072,482 -1072,1072l0 0c0,589 482,1072 1072,1072zm2749 319l-160 0 157 435 -604 -435 -73 0c-411,0 -747,-336 -747,-747l0 0c0,-411 336,-747 747,-747l680 0c411,0 747,336 747,747l0 0c0,411 -336,747 -747,747zm-5278 2101l2866 0c-7,539 -168,970 -366,970l2544 0c-197,0 -358,-431 -366,-970l2095 0 0 735c0,129 106,235 235,235l1330 0 1833 0 1343 0c126,0 229,-103 229,-229l0 -1351c0,-126 -103,-229 -229,-229l-1108 0 0 -2705c0,-129 -106,-235 -235,-235l-2463 0 0 -1451c0,-127 -104,-230 -230,-230l-7479 0c-127,0 -230,104 -230,230l0 4999c0,127 104,230 230,230zm6774 -946l-6746 0 0 -4256 7407 0 0 1424 -426 0c-129,0 -235,106 -235,235l0 2598zm1127 -862l195 0 -126 349 485 -349 58 0c34,0 67,-3 100,-8 -36,-69 -56,-148 -56,-231 0,-276 226,-502 502,-502l37 0c-64,-262 -301,-458 -582,-458l-612 0c-330,0 -599,270 -599,599l0 0c0,330 270,599 599,599zm1537 178l-89 0 88 243 -338 -243 -41 0c-230,0 -417,-188 -417,-417l0 0c0,-230 188,-417 417,-417l380 0c230,0 417,188 417,417l0 0c0,230 -188,417 -417,417zm-1328 2152l-981 0 0 -3855 2922 0 0 2493 -1713 0c-126,0 -229,103 -229,229l0 1133zm439 -4121l90 0 0 91 -90 0 0 -91zm1835 4065l-55 0 54 149 -208 -149 -25 0c-141,0 -257,-116 -257,-257l0 0c0,-141 116,-257 257,-257l234 0c141,0 257,116 257,257l0 0c0,141 -116,257 -257,257zm-1663 382l2411 0 0 -1567 -2411 0 0 1567zm-279 -631c86,0 156,-70 156,-156 0,-86 -70,-156 -156,-156 -86,0 -156,70 -156,156 0,86 70,156 156,156zm2925 -401c35,0 63,-28 63,-63 0,-35 -28,-63 -63,-63 -35,0 -63,28 -63,63 0,35 28,63 63,63zm63 155c0,-35 -28,-63 -63,-63 -35,0 -63,28 -63,63l0 177c0,35 28,63 63,63 35,0 63,-28 63,-63l0 -177z"/>
  <path class="fil1" d="M12238 2383c-2,-4 -1,-8 1,-11 2,-3 4,-7 5,-11 0,-4 -3,-8 -7,-11 -5,-4 -8,-7 -12,-11 0,-1 1,-2 2,-4 2,-2 3,-4 5,-6 4,-2 8,-1 11,2 4,4 8,7 12,9 32,-33 62,-69 89,-108 27,-39 55,-76 84,-113 13,-20 28,-40 43,-60 15,-20 30,-41 42,-64 -16,-14 -34,-27 -53,-39 -19,-12 -38,-24 -56,-36 -4,0 -7,2 -11,6 -4,4 -7,7 -12,11 -1,1 -3,-1 -7,-5 1,-5 2,-10 4,-14 1,-5 4,-9 7,-12 -1,-2 -3,-3 -4,-4 -2,-1 -3,-3 -5,-4 -1,0 -2,-2 -2,-3 0,-2 1,-4 3,-5 2,-4 5,-4 9,-3 4,2 8,3 11,4 8,-7 16,-15 25,-25 9,-10 17,-20 23,-31 -2,-4 -5,-7 -8,-10 -3,-3 -6,-6 -9,-8 0,0 1,-1 2,-2 1,-2 2,-3 2,-3 4,-4 7,-4 10,-2 3,2 6,4 10,5 4,2 8,0 11,-5 4,-5 7,-6 11,-2 2,2 2,4 0,7 -2,3 -3,6 -5,8 27,25 58,47 91,68 33,21 64,44 93,70 27,18 53,37 78,59 25,22 51,40 81,56 2,-2 4,-5 7,-7 3,-2 6,-5 9,-6 1,0 2,1 3,2 1,1 3,3 5,4 1,4 0,8 -2,10 -2,3 -4,6 -5,10 1,3 3,6 6,9 3,2 6,5 8,8 -1,2 -2,4 -1,5 1,2 0,3 -2,6 -5,3 -9,3 -14,-1 -4,-4 -9,-6 -14,-8 -7,9 -14,17 -21,27 -7,9 -12,19 -16,30 3,1 5,2 7,5 -1,2 -1,4 -1,7 0,2 -1,5 -5,8 -5,3 -10,3 -15,-1 -4,2 -8,6 -11,12 -3,6 -7,11 -12,15 -5,1 -10,0 -13,-2 -2,-8 1,-14 7,-19 6,-5 10,-11 12,-18 -5,-6 -10,-10 -16,-14 -6,-4 -12,-7 -18,-11 -11,-7 -22,-15 -33,-23 -11,-8 -22,-17 -32,-26 -4,-1 -8,-4 -13,-7 -4,-4 -9,-7 -15,-8 -45,53 -88,108 -129,165 -41,57 -82,115 -122,173 2,3 5,6 9,7 4,2 6,4 8,8 1,3 1,5 -1,6 -2,1 -4,3 -6,5 -6,1 -12,-1 -20,-8 -3,-2 -6,-1 -9,1 -3,2 -5,5 -8,7 -4,2 -7,1 -9,-3 -1,-3 -1,-5 2,-8 2,-3 4,-6 4,-9 -8,-11 -19,-20 -32,-29 -13,-8 -26,-17 -39,-27 -2,-1 -4,0 -7,3 -2,3 -4,6 -7,9 -5,5 -10,6 -15,2zm614 138l77 47 43 -143c-13,9 -25,18 -37,28 -12,10 -25,20 -40,29 -3,3 -7,6 -12,9 -5,3 -9,6 -11,9 -4,3 -8,5 -14,8 -5,3 -8,6 -7,11 0,1 0,1 0,2 0,1 0,1 0,1zm-2 310c-3,-4 -3,-8 -1,-13 2,-5 4,-9 6,-13 -4,-3 -7,-6 -10,-9 -3,-3 -6,-6 -10,-9 -1,-1 0,-3 1,-4 2,-1 3,-3 5,-4 4,-2 7,-1 10,1 3,2 6,4 10,5 3,-1 4,-2 4,-6 0,-3 0,-6 1,-9 2,-4 3,-8 3,-12 0,-4 2,-8 5,-13 4,-12 8,-23 11,-34 3,-11 5,-22 7,-33 -24,-16 -49,-32 -74,-48 -26,-16 -51,-33 -77,-50 -6,1 -13,4 -20,10 -7,6 -15,11 -23,14 -4,5 -9,9 -15,12 -6,3 -11,7 -16,13 0,2 0,3 1,4 1,1 2,3 3,4 1,1 1,3 -1,5 -1,2 -2,4 -3,6 -5,4 -10,4 -16,0 -6,-4 -11,-4 -15,0 -3,1 -5,2 -6,3 -1,1 -3,2 -5,4 -4,1 -7,-1 -11,-7 1,-3 3,-5 5,-7 2,-2 4,-4 5,-7 -9,-12 -20,-22 -35,-30 -14,-8 -28,-17 -40,-28 -3,-2 -5,-2 -7,1 -2,3 -4,4 -8,5 -4,0 -9,0 -13,2 -5,1 -9,-1 -12,-7 1,-2 3,-5 7,-8 3,-3 6,-6 8,-9 1,-2 0,-4 -4,-9 -1,-2 0,-3 1,-5 1,-1 2,-3 4,-5 4,-1 7,0 10,3 3,3 7,5 11,8 7,1 13,-1 18,-6 6,-6 12,-10 17,-14 9,-5 18,-10 27,-16 9,-6 17,-12 26,-19 50,-28 101,-60 153,-96 52,-36 103,-69 154,-100 12,-10 25,-19 37,-25 13,-7 25,-15 36,-24 0,-1 -1,-3 -1,-4 -1,-2 -2,-2 -5,-2 -2,-1 -3,-4 -4,-6 -1,-3 0,-5 3,-7 3,-1 7,-1 11,2 4,2 8,5 12,8 5,-1 9,-3 12,-6 4,-3 8,-6 14,-7 1,-1 3,-1 5,-1 2,0 3,1 3,3 -2,5 -4,8 -7,10 -3,2 -6,4 -9,8 9,10 20,19 33,27 13,8 26,15 39,21 4,-2 7,-6 8,-13 1,-7 5,-11 11,-13 -1,11 -1,21 -1,31 1,10 8,18 21,26 2,1 1,3 -1,5 -2,2 -5,4 -6,5 -3,0 -6,-2 -9,-5 -3,-3 -7,-5 -12,-5 -7,15 -12,31 -16,50 -3,19 -9,36 -17,52 0,5 -1,9 -4,15 -3,5 -5,11 -6,16 -5,22 -12,43 -19,65 -7,21 -14,43 -19,66 -5,26 -13,53 -23,81 -10,28 -20,55 -28,81 -3,12 -7,25 -12,37 -5,12 -9,25 -10,37 -2,4 -3,8 -4,13 -1,5 -2,10 -5,15 -1,1 -1,4 -1,7 0,3 2,5 6,5 2,3 4,5 8,5 4,1 6,3 9,7 1,2 0,5 -1,7 -2,2 -4,4 -7,7 -3,2 -6,2 -9,-1 -3,-2 -7,-4 -10,-5 -2,-1 -3,0 -4,1 -1,2 -2,3 -4,4 -3,1 -6,2 -8,2 -3,1 -6,-1 -9,-5 0,-3 1,-5 2,-8 1,-3 2,-6 2,-9 -9,-11 -20,-20 -33,-28 -13,-8 -26,-16 -39,-25 -3,1 -7,3 -11,8 -4,5 -8,6 -11,4zm-1125 -830c-3,-3 -2,-7 2,-11 4,-4 6,-8 8,-13 2,-3 1,-6 -2,-9 -3,-3 -6,-6 -8,-11 -1,-2 0,-3 2,-4 2,-1 3,-1 5,-2 3,-1 6,0 8,3 2,2 5,4 8,6 56,-66 109,-134 159,-206 50,-72 102,-142 157,-210 0,-5 -2,-9 -8,-13 -3,-5 -3,-9 1,-14 3,-2 6,-1 10,1 4,3 7,4 10,5 4,0 7,-2 10,-6 3,-3 6,-7 8,-9 1,1 2,1 3,1 1,0 2,1 2,3 0,3 0,6 -2,9 -1,3 -3,6 -5,10 17,16 35,31 54,44 19,13 38,27 58,42 14,11 28,22 42,33 14,11 29,21 46,29 31,30 65,55 102,77 3,2 6,2 7,0 2,-2 3,-3 5,-5 2,-2 3,-3 5,-4 2,-1 4,0 7,2 0,7 0,14 0,21 0,7 3,14 9,21 0,1 0,2 -2,3 -1,1 -2,2 -2,5 -4,2 -8,2 -12,0 -4,-2 -8,-4 -13,-5 -9,6 -17,14 -24,25 -7,11 -15,21 -22,30 3,1 5,2 9,5 3,3 4,6 3,11 -3,5 -7,8 -12,9 -5,1 -10,3 -15,4 -1,-1 -2,-1 -3,0 -1,1 -2,3 -3,4 -3,1 -6,3 -10,5 -4,2 -8,1 -13,-2 -1,-6 0,-11 3,-15 1,-3 2,-6 4,-9 2,-3 3,-6 4,-10 -32,-26 -66,-52 -102,-76 -35,-24 -70,-49 -104,-75 -11,10 -21,22 -30,36 -9,14 -19,27 -30,39 29,25 59,48 92,70 32,22 65,43 98,65 5,1 9,-1 12,-5 3,-5 7,-8 10,-10 0,0 1,1 3,4 3,3 3,6 0,9 -2,4 -4,7 -6,11 -1,1 0,2 2,4 2,1 4,2 6,3 0,1 1,3 2,6 2,3 1,6 -1,9 -3,4 -6,6 -11,5 -5,-1 -10,-2 -15,-2 -7,10 -15,20 -25,30 -9,10 -15,21 -15,33 0,2 0,5 -2,8 -2,3 -4,6 -7,7 0,1 -1,1 -3,1 -2,-1 -4,-1 -5,-2 -2,0 -4,2 -6,7 -2,4 -5,6 -10,6 -3,1 -6,-1 -8,-6 -2,-4 -2,-8 0,-11 3,-3 4,-7 5,-10 -26,-26 -55,-49 -87,-70 -32,-21 -63,-43 -93,-66 -13,14 -26,29 -39,44 -13,15 -25,32 -35,50 35,24 69,50 102,76 33,26 67,52 102,77 2,1 4,1 6,-1 1,-2 3,-4 5,-6 2,-1 3,-3 5,-5 2,-2 4,-1 6,2 2,2 3,3 2,5 -1,2 -1,4 -1,6 -1,4 0,7 2,10 3,2 5,5 8,8 -1,5 -4,11 -10,17 -2,1 -4,0 -6,-3 -2,-2 -4,-4 -6,-6 -8,7 -16,15 -23,25 -7,10 -13,20 -18,31 2,3 5,5 9,7 5,1 8,4 11,9 -1,3 -2,6 -5,7 -3,1 -6,3 -9,5 -4,2 -7,1 -10,-1 -3,-2 -7,-4 -10,-7 -3,-1 -6,0 -8,3 -2,3 -5,6 -8,8 -1,1 -3,1 -5,0 -2,-1 -4,-3 -5,-4 0,-4 1,-7 2,-10 1,-3 2,-7 3,-11 -46,-37 -96,-74 -149,-109 -53,-35 -104,-72 -153,-111 -4,-1 -7,1 -10,5 -3,4 -6,7 -10,10 -1,2 -3,2 -5,1 -2,-1 -4,-2 -4,-2zm-395 -286c-2,-6 0,-11 5,-14 5,-3 7,-8 5,-13 1,-2 0,-3 -3,-5 -2,-2 -4,-4 -5,-6 -2,-1 -2,-3 0,-5 2,-2 4,-4 6,-6 2,-3 5,-2 9,1 3,3 7,5 11,7 55,-68 108,-137 158,-209 50,-71 101,-142 151,-212 -2,-2 -5,-4 -6,-6 -2,-2 -2,-5 -2,-7 1,-1 3,-3 5,-5 2,-2 5,-2 8,-1 9,2 18,-2 28,-10 4,-2 7,-1 11,2 1,3 1,6 -1,10 -2,3 -4,7 -5,11 36,32 74,62 115,90 41,29 79,60 114,95 4,8 9,16 14,24 6,8 10,16 14,25 2,6 4,13 5,19 1,6 2,13 1,20 2,4 2,9 0,15 -1,6 -2,11 -3,17 -3,22 -13,44 -29,65 -16,21 -35,35 -57,41 -5,2 -12,3 -19,4 -7,1 -14,2 -22,3 -2,-1 -4,-1 -7,0 -3,1 -6,1 -9,1 -1,4 0,8 2,12 2,4 4,9 5,14 0,3 0,6 1,9 1,3 1,6 1,10 4,22 2,46 -7,71 -9,25 -22,47 -42,66 -7,4 -14,9 -21,14 -7,5 -14,10 -22,13 -3,1 -6,2 -7,3 -2,1 -4,2 -8,2 -13,6 -27,9 -41,10 -14,1 -29,1 -44,0 -5,-2 -9,-4 -14,-5 -5,-1 -10,-3 -16,-6 -25,-11 -47,-26 -68,-45 -21,-19 -43,-35 -68,-50 -17,-15 -36,-29 -55,-42 -19,-13 -39,-26 -60,-39 -3,1 -7,3 -9,7 -3,4 -6,7 -11,9 -4,1 -7,0 -11,-3zm211 -13c18,13 38,26 59,40 21,14 43,21 64,21 9,-2 18,-7 26,-15 8,-7 14,-15 18,-25 0,-6 1,-12 2,-17 1,-5 1,-10 -2,-14 1,-3 0,-6 -1,-9 -1,-3 -2,-6 -3,-9 -17,-20 -36,-37 -57,-51 -21,-14 -41,-29 -60,-45 1,1 1,2 0,4 -2,0 -4,-1 -5,-2 -2,-1 -3,-1 -4,0 -14,14 -27,29 -40,44 -12,15 -24,31 -33,47 5,6 11,11 18,15 6,4 12,9 18,15zm121 -207c20,13 42,27 65,43 23,16 46,25 71,28 9,0 17,-3 24,-8 7,-6 12,-13 15,-22 2,-7 4,-15 4,-22 0,-7 -1,-14 -3,-20 -16,-20 -35,-37 -57,-52 -22,-15 -43,-29 -64,-42 -11,14 -23,28 -34,42 -12,14 -23,27 -33,41 2,2 4,4 6,6 2,2 4,4 6,6z"/>
  <g id="_350150424">
   <path class="fil2" d="M11663 1495c20,13 42,27 65,43 23,16 46,25 71,28 9,0 17,-3 24,-8 7,-6 12,-13 15,-22 2,-7 4,-15 4,-22 0,-7 -1,-14 -3,-21 -16,-20 -35,-37 -57,-52 -22,-15 -43,-29 -64,-42 -11,14 -23,28 -34,42 -12,14 -23,28 -33,41 2,2 4,4 6,6 2,2 4,4 6,6zm-54 24c0,-1 0,-2 -1,-3 -1,-1 -1,-2 -2,-4 -1,-4 0,-7 3,-10 3,-3 5,-6 8,-8 0,-4 -2,-8 -6,-10 -4,-3 -7,-6 -10,-9 1,-2 3,-2 6,-3 3,0 5,-2 6,-5 3,-2 7,-1 11,1 5,2 9,3 12,3 11,-13 23,-27 36,-40 13,-14 21,-28 26,-43 0,0 1,0 2,0 1,0 2,0 3,-1 0,-3 -2,-5 -6,-8 -4,-3 -8,-6 -11,-10 -1,-3 1,-7 4,-12 4,0 7,2 11,4 4,3 8,5 11,7 5,1 8,-1 9,-5 1,-4 4,-7 8,-8 1,-1 2,-1 4,0 1,1 3,3 5,4 1,4 0,7 -2,10 -2,3 -4,6 -6,10 13,11 26,21 41,30 15,9 30,18 43,28 6,8 13,15 21,22 8,7 14,15 19,24 5,6 7,12 7,18 -1,6 0,13 1,19 -3,11 -7,22 -14,33 -7,12 -16,20 -27,26 -17,6 -33,6 -49,2 -16,-5 -31,-11 -46,-21 -15,-9 -30,-19 -45,-30 -14,-11 -30,-20 -46,-27 -3,1 -6,3 -8,6 -2,3 -4,6 -8,7 -1,1 -3,2 -5,2 -2,1 -4,0 -6,-2zm-67 183c18,13 38,26 59,40 21,14 43,21 64,21 9,-2 18,-7 26,-15 8,-7 14,-15 18,-25 0,-6 1,-12 2,-17 1,-5 1,-10 -2,-14 1,-3 0,-6 -1,-9 -1,-3 -2,-6 -3,-9 -17,-20 -36,-37 -57,-51 -21,-14 -41,-29 -60,-45 1,1 1,2 0,4 -2,0 -4,-1 -5,-2 -2,-1 -3,-1 -4,0 -14,14 -27,29 -40,44 -12,15 -24,31 -33,47 5,6 11,11 18,15 6,4 12,9 18,15zm-71 2c-1,-2 -3,-4 -3,-6 -1,-2 -2,-3 -4,-5 -2,-3 -2,-6 1,-7 3,-2 4,-4 4,-6 1,-2 0,-3 -1,-4 -1,-1 -3,-3 -5,-4 2,-3 3,-4 4,-5 1,-1 2,-3 3,-5 3,-3 8,-3 14,-1 2,0 6,-2 10,-6 26,-27 51,-58 72,-93 0,-2 -1,-4 -4,-7 -3,-2 -6,-5 -7,-8 0,-2 1,-3 2,-3 1,0 2,-1 4,-3 3,-1 7,-1 11,1 4,2 7,3 10,4 2,-1 5,-3 6,-5 2,-3 4,-5 7,-7 0,-1 1,-1 3,0 2,1 3,2 4,4 2,3 2,6 0,9 -2,3 -3,7 -3,11 9,13 20,24 34,33 14,9 27,19 41,29 14,10 26,21 37,32 11,12 18,26 21,43 -1,4 -1,8 0,13 0,5 0,10 -2,15 -6,14 -14,27 -26,40 -11,13 -24,20 -40,22 -4,0 -8,0 -13,0 -5,0 -10,0 -15,-1 -29,-9 -54,-23 -76,-41 -22,-19 -46,-35 -73,-48 -4,0 -7,2 -9,7 -2,5 -5,7 -7,5zm-83 -8c22,14 43,28 64,43 21,15 42,31 62,46 20,15 41,30 63,44 21,14 43,26 66,36 6,0 12,1 18,1 6,1 11,1 17,1 7,-1 15,-1 21,-2 7,-1 13,-2 18,-5 9,-1 17,-4 24,-9 7,-5 14,-10 21,-14 13,-9 23,-20 31,-32 7,-12 13,-25 17,-38 0,-7 0,-14 2,-22 2,-7 3,-14 2,-20 0,-12 -1,-23 -4,-34 -3,-11 -9,-22 -18,-32 -3,1 -6,0 -9,-2 -3,-2 -5,-4 -8,-5 1,-6 3,-10 6,-14 4,-3 8,-5 12,-5 9,5 17,7 25,8 8,1 16,1 25,1 5,-1 9,-1 13,-1 4,0 8,-1 13,-3 14,-1 27,-7 39,-17 12,-10 21,-22 28,-35 2,-2 3,-5 3,-7 0,-2 1,-4 2,-7 1,-7 3,-14 5,-21 2,-8 3,-14 2,-20 2,-18 -1,-37 -10,-57 -27,-41 -59,-75 -97,-102 -38,-27 -75,-55 -113,-83 -7,-4 -15,-9 -24,-15 -9,-6 -17,-9 -25,-8 -54,67 -106,136 -154,206 -48,71 -99,139 -153,206 3,3 5,5 8,8 2,2 4,5 6,8zm-58 18c-2,-6 0,-11 5,-14 5,-3 7,-8 5,-13 1,-2 0,-3 -3,-5 -2,-2 -4,-4 -5,-6 -2,-1 -2,-3 0,-5 2,-2 4,-4 6,-6 2,-3 5,-2 9,1 3,3 7,5 11,7 55,-68 108,-137 158,-209 50,-71 101,-142 151,-212 -2,-2 -5,-4 -6,-6 -2,-2 -2,-5 -2,-7 1,-1 3,-3 5,-5 2,-2 5,-2 8,-1 9,2 18,-2 28,-10 4,-2 7,-1 11,2 1,3 1,6 -1,10 -2,3 -4,7 -5,11 36,32 74,62 115,90 41,29 79,60 114,95 4,8 9,16 14,24 6,8 10,16 14,25 2,6 4,13 5,19 1,6 2,13 1,20 2,4 2,9 0,15 -1,6 -2,11 -3,17 -3,22 -13,44 -29,65 -16,21 -35,35 -57,41 -5,2 -12,3 -19,4 -7,1 -14,2 -22,3 -2,-1 -4,-1 -7,0 -3,1 -6,1 -9,1 -1,4 0,8 2,12 2,4 4,9 5,14 0,3 0,6 1,9 1,3 1,6 1,10 4,22 2,46 -7,71 -9,25 -22,47 -42,66 -7,4 -14,9 -21,14 -7,5 -14,10 -22,13 -3,1 -6,2 -7,3 -2,1 -4,2 -8,2 -13,6 -27,9 -41,10 -14,1 -29,1 -44,0 -5,-2 -9,-4 -14,-5 -5,-1 -10,-3 -16,-6 -25,-11 -47,-26 -68,-45 -21,-19 -43,-35 -68,-50 -17,-15 -36,-29 -55,-42 -19,-13 -39,-26 -60,-39 -3,1 -7,3 -9,7 -3,4 -6,7 -11,9 -4,1 -7,0 -11,-3zm438 260c50,38 100,74 151,110 51,35 101,71 150,107 7,-10 15,-20 23,-30 8,-10 14,-20 18,-30 -28,-26 -59,-49 -91,-69 -32,-20 -62,-42 -89,-68 -4,-1 -9,-3 -14,-7 -5,-4 -9,-5 -13,-4 -3,4 -5,6 -7,6 -2,0 -5,0 -7,1 -1,-3 -3,-6 -6,-10 -3,-4 -3,-7 0,-10 1,-5 -1,-9 -4,-13 -3,-4 -4,-8 -2,-13 4,-5 9,-6 14,-2 5,3 9,5 12,6 12,-14 24,-29 36,-43 12,-14 21,-29 29,-44 -2,-5 -5,-8 -9,-10 -4,-2 -6,-5 -6,-9 1,-9 5,-14 13,-16 4,3 8,5 11,9 3,3 7,4 12,1 2,-1 3,-3 5,-5 2,-2 3,-2 5,0 3,2 6,4 9,5 3,1 4,3 4,6 0,2 -1,3 -2,4 -1,1 -1,2 -1,4 29,24 59,47 90,69 31,23 62,44 93,64 7,-9 14,-19 23,-29 8,-10 15,-19 22,-29 -31,-24 -62,-47 -94,-68 -32,-21 -63,-43 -94,-66 -4,3 -8,6 -11,10 -3,4 -7,5 -12,5 -1,-2 -2,-4 -4,-5 -2,-1 -3,-3 -2,-4 1,-3 3,-6 5,-10 2,-3 3,-6 1,-7 -3,-3 -5,-6 -8,-9 -3,-3 -4,-6 -3,-8 2,-2 4,-4 4,-6 1,-2 2,-3 4,-3 3,1 7,3 9,6 3,2 5,4 8,3 9,-11 19,-22 30,-33 11,-11 19,-22 24,-35 -2,-3 -3,-6 -5,-9 -2,-3 -4,-6 -8,-8 -2,-3 -2,-5 -1,-7 1,-2 3,-4 5,-5 5,-2 8,-2 12,0 3,2 7,3 11,2 2,1 4,3 6,4 3,-2 6,-5 8,-9 3,-4 6,-6 9,-6 2,2 5,3 6,4 2,1 2,3 2,6 -1,3 -2,6 -6,9 -3,2 -4,6 -2,10 30,26 63,50 99,72 36,22 69,46 100,73 2,1 4,1 5,3 2,1 3,2 3,1 9,-9 17,-18 26,-28 8,-9 15,-19 21,-31 -4,-3 -8,-6 -12,-9 -4,-3 -7,-6 -9,-8 -47,-35 -93,-71 -140,-107 -47,-36 -94,-70 -141,-101 -57,68 -112,137 -163,208 -51,71 -102,142 -153,211 1,1 2,2 2,3 0,1 1,1 1,1zm-43 26c-3,-3 -2,-7 2,-11 4,-4 6,-8 8,-13 2,-3 1,-6 -2,-9 -3,-3 -6,-6 -8,-11 -1,-2 0,-3 2,-4 2,-1 3,-1 5,-2 3,-1 6,0 8,3 2,2 5,4 8,6 56,-66 109,-134 159,-206 50,-72 102,-142 157,-210 0,-5 -2,-9 -8,-13 -3,-5 -3,-9 1,-14 3,-2 6,-1 10,1 4,3 7,4 10,5 4,0 7,-2 10,-6 3,-3 6,-7 8,-9 1,1 2,1 3,1 1,0 2,1 2,3 0,3 0,6 -2,9 -1,3 -3,6 -5,10 17,16 35,31 54,44 19,13 38,27 58,42 14,11 28,22 42,33 14,11 29,21 46,29 31,30 65,55 102,77 3,2 6,2 7,0 2,-2 3,-3 5,-5 2,-2 3,-3 5,-4 2,-1 4,0 7,2 0,7 0,14 0,21 0,7 3,14 9,21 0,1 0,2 -2,3 -1,1 -2,2 -2,5 -4,2 -8,2 -12,0 -4,-2 -8,-4 -13,-5 -9,6 -17,14 -24,25 -7,11 -15,21 -22,30 3,1 6,2 9,5 3,3 4,6 3,11 -3,5 -7,8 -12,9 -5,1 -10,3 -15,4 -1,-1 -2,-1 -3,0 -1,1 -2,3 -3,4 -3,1 -6,3 -10,5 -4,2 -8,1 -13,-2 -1,-6 0,-11 3,-15 1,-3 2,-6 4,-9 2,-3 3,-6 4,-10 -32,-26 -66,-52 -102,-76 -35,-24 -70,-49 -104,-75 -11,10 -21,22 -30,36 -9,14 -19,27 -30,39 29,25 59,48 92,70 32,22 65,43 98,65 5,1 9,-1 12,-5 3,-5 7,-8 10,-10 0,0 1,1 3,4 3,3 3,6 0,9 -2,4 -4,7 -6,11 -1,1 0,2 2,4 2,1 4,2 6,3 0,1 1,3 2,6 2,3 1,6 -1,9 -3,4 -6,6 -11,5 -5,-1 -10,-2 -15,-2 -7,10 -15,20 -25,30 -9,10 -15,21 -15,33 0,2 0,5 -2,8 -2,3 -4,6 -7,7 0,1 -1,1 -3,1 -2,-1 -4,-1 -5,-2 -2,0 -4,2 -6,7 -2,4 -5,6 -10,6 -3,1 -6,-1 -8,-6 -2,-4 -2,-8 0,-11 3,-3 4,-7 5,-10 -26,-26 -55,-49 -87,-70 -32,-21 -63,-43 -93,-66 -13,14 -26,29 -39,44 -13,15 -25,32 -35,50 35,24 69,50 102,76 33,26 67,52 102,77 2,1 4,1 6,-1 1,-2 3,-4 5,-6 2,-1 3,-3 5,-5 2,-2 4,-1 6,2 2,2 3,3 2,5 -1,2 -1,4 -1,6 -1,4 0,7 2,10 3,2 5,5 8,8 -1,5 -4,11 -10,17 -2,1 -4,0 -6,-3 -2,-2 -4,-4 -6,-6 -8,7 -16,15 -23,25 -7,10 -13,20 -18,31 2,3 5,5 9,7 5,1 8,4 11,8 -1,3 -2,6 -5,7 -3,1 -6,3 -9,5 -4,2 -7,1 -10,-1 -3,-2 -7,-4 -10,-7 -3,-1 -6,0 -8,3 -2,3 -5,6 -9,8 -1,1 -3,1 -5,0 -2,-1 -4,-2 -5,-4 0,-4 1,-7 2,-10 1,-3 2,-7 3,-11 -46,-37 -96,-74 -149,-109 -53,-35 -104,-72 -153,-111 -4,-1 -7,1 -10,5 -3,4 -6,7 -10,10 -1,2 -3,2 -5,1 -2,-1 -4,-2 -4,-2z"/>
   <path class="fil2" d="M12285 2355c11,8 22,16 33,24 11,8 22,16 34,23 43,-53 84,-108 124,-164 40,-56 81,-111 123,-165 -1,-2 -2,-5 -3,-7 -1,-3 -1,-5 0,-8 5,-5 10,-7 16,-6 5,0 10,-2 14,-7 4,-5 8,-8 13,-10 3,1 5,3 5,5 0,2 1,5 1,7 -2,3 -4,6 -6,8 -3,3 -3,5 -2,7 20,15 40,30 60,46 20,16 41,29 62,39 7,-9 14,-18 22,-27 8,-9 13,-18 15,-27 -49,-40 -98,-80 -148,-118 -50,-38 -101,-75 -154,-110 -13,-8 -24,-15 -34,-20 -7,9 -14,18 -23,27 -8,9 -15,18 -21,28 20,13 39,28 57,43 18,15 37,27 57,35 4,-2 7,-4 10,-7 3,-3 6,-4 8,-2 1,2 2,5 3,8 2,3 1,5 -1,7 -1,1 -2,3 -3,4 -1,1 -1,2 1,2 4,5 8,8 12,11 4,3 7,7 7,12 -1,3 -2,6 -3,7 -1,2 -3,3 -6,1 -5,3 -10,1 -14,-4 -4,-5 -9,-7 -13,-7 -8,9 -15,17 -21,26 -6,9 -13,18 -21,27 -33,49 -68,97 -107,143 -38,46 -71,95 -98,147zm-47 29c-2,-4 -1,-8 1,-11 2,-3 4,-7 5,-11 0,-4 -3,-8 -7,-11 -4,-4 -8,-7 -12,-11 0,-1 1,-2 2,-4 2,-2 3,-4 5,-6 4,-2 8,-1 11,2 4,4 8,7 12,9 32,-33 62,-69 89,-108 27,-39 55,-76 84,-113 13,-20 28,-40 44,-60 15,-20 30,-41 42,-64 -16,-14 -34,-27 -53,-39 -19,-12 -38,-24 -56,-36 -4,0 -7,2 -11,6 -4,4 -7,7 -12,11 -1,1 -3,-1 -7,-5 1,-5 2,-10 4,-14 1,-5 4,-9 7,-12 -1,-2 -3,-3 -4,-4 -2,-1 -3,-3 -5,-4 -1,0 -2,-2 -2,-3 0,-2 1,-4 3,-5 2,-4 5,-4 9,-3 4,2 8,3 11,4 8,-7 16,-15 25,-25 9,-10 17,-20 23,-31 -2,-4 -5,-7 -8,-10 -3,-3 -6,-6 -9,-8 0,0 1,-1 2,-2 1,-2 2,-3 2,-3 4,-4 7,-4 10,-2 3,2 6,4 10,5 4,2 8,0 11,-5 4,-5 7,-6 11,-2 2,2 2,4 0,7 -2,3 -3,6 -5,8 27,25 58,47 91,68 33,21 64,44 93,70 27,18 53,37 78,59 25,22 51,40 81,56 2,-2 4,-5 7,-7 3,-2 6,-5 9,-6 1,0 2,1 3,2 1,1 3,3 5,4 1,4 0,8 -3,10 -2,3 -4,6 -5,10 1,3 3,6 6,9 3,2 6,5 8,8 -1,2 -2,4 -1,5 1,2 0,3 -2,6 -5,3 -9,3 -14,-1 -4,-4 -9,-6 -14,-8 -7,9 -14,17 -21,27 -7,9 -12,19 -16,30 3,1 5,2 7,5 -1,2 -1,4 -1,7 0,2 -1,5 -5,8 -5,3 -10,3 -15,-1 -4,2 -8,6 -11,12 -3,6 -7,11 -12,15 -5,1 -10,0 -13,-2 -2,-8 1,-14 7,-19 6,-5 10,-11 12,-18 -5,-6 -10,-10 -16,-14 -6,-4 -12,-7 -18,-11 -11,-7 -22,-15 -33,-23 -11,-8 -22,-17 -32,-26 -4,-1 -8,-4 -13,-7 -4,-4 -9,-7 -15,-8 -45,53 -88,108 -129,165 -41,57 -82,115 -122,173 2,3 5,6 9,7 4,2 6,4 8,8 1,3 1,5 -1,6 -2,1 -4,3 -6,5 -6,1 -12,-1 -20,-8 -3,-2 -6,-1 -9,1 -3,2 -5,5 -8,7 -4,2 -7,1 -9,-3 -1,-3 -1,-5 2,-8 2,-3 4,-6 4,-9 -8,-11 -19,-20 -32,-29 -13,-8 -26,-17 -39,-27 -2,-1 -4,0 -7,3 -2,3 -4,6 -7,9 -5,5 -10,6 -15,2zm614 138l77 47 43 -143c-13,9 -25,18 -37,28 -12,10 -25,20 -40,29 -3,3 -7,6 -12,9 -5,3 -9,6 -11,9 -4,3 -8,5 -14,8 -5,3 -8,6 -7,11 0,1 0,1 0,2 0,1 0,1 0,1zm-50 16c-2,-2 -2,-5 0,-8 2,-3 5,-5 8,-7 3,-3 2,-6 -1,-9 -4,-3 -5,-7 -3,-11 4,-2 7,-3 11,-2 3,1 7,3 11,6 15,-5 30,-14 43,-25 13,-11 27,-21 40,-31 17,-14 34,-27 52,-41 18,-14 30,-30 37,-51 1,-1 3,0 5,2 2,2 3,4 4,7 0,2 1,2 3,1 2,-1 4,-2 6,-1 3,1 5,2 4,4 -1,2 -1,4 -1,7 -12,13 -21,27 -27,42 -6,16 -12,32 -16,49 -5,17 -9,35 -12,52 -4,18 -9,35 -16,52 1,3 4,6 8,7 4,1 7,3 10,7 1,2 1,5 0,9 -1,3 -3,6 -6,9 -2,2 -3,2 -4,1 -1,-2 -3,-2 -6,-2 -4,-2 -7,-1 -8,3 -2,3 -4,6 -8,6 -6,3 -11,0 -14,-9 -2,-3 -2,-5 1,-7 2,-2 4,-4 5,-6 -14,-11 -29,-22 -44,-33 -16,-11 -32,-20 -50,-27 -2,1 -5,3 -9,5 -4,2 -8,4 -11,5 -2,1 -3,1 -5,-1 -2,-2 -3,-3 -5,-4zm-227 36c12,8 24,16 36,24 13,8 25,15 37,21 14,-9 27,-17 40,-25 13,-7 25,-16 36,-25 -2,-4 -4,-7 -6,-9 -3,-2 -4,-5 -3,-9 4,-5 7,-7 12,-6 4,2 8,4 13,7 4,3 8,3 12,1 2,-2 5,-5 8,-7 3,-2 5,-3 8,-2 2,1 3,2 5,3 1,1 2,2 1,3 -1,3 -3,6 -6,10 -3,4 -3,6 -2,8 22,16 43,32 65,46 21,15 44,28 67,41 2,-3 5,-7 6,-11 2,-4 5,-5 9,-4 5,1 6,4 5,7 1,4 0,7 -2,11 -2,4 -1,7 2,10 2,4 5,5 9,5 4,0 6,1 5,3 0,4 0,7 0,11 0,3 -1,6 -3,8 -3,-1 -7,-1 -10,-3 -3,-1 -6,-2 -9,-1 -5,17 -11,35 -18,52 -7,18 -11,35 -12,51 11,10 23,19 35,28 12,8 24,17 36,25 12,-36 25,-73 39,-111 14,-38 27,-77 39,-116 4,-15 7,-29 11,-43 4,-14 7,-27 10,-40 12,-35 24,-72 37,-109 13,-38 23,-74 29,-109 -14,-11 -28,-22 -42,-34 -14,-12 -30,-20 -46,-24 -8,6 -15,11 -22,14 -7,3 -14,7 -22,12 -23,16 -47,32 -71,47 -24,16 -48,31 -71,45 -5,3 -9,5 -12,9 -3,3 -7,6 -12,7 -21,14 -42,27 -62,41 -20,14 -40,27 -60,41 -12,7 -25,14 -37,22 -13,8 -25,16 -36,26 -9,6 -19,12 -30,18 -11,6 -19,13 -24,21 1,1 2,2 3,3 1,1 2,2 4,4zm275 258c-3,-4 -3,-8 -1,-13 2,-5 4,-9 6,-13 -4,-3 -7,-6 -10,-9 -3,-3 -6,-6 -10,-9 -1,-1 0,-3 1,-4 2,-1 3,-3 5,-4 4,-2 7,-1 10,1 3,2 6,4 10,5 3,-1 4,-2 4,-6 0,-3 0,-6 1,-9 2,-4 3,-8 3,-12 0,-4 2,-8 5,-13 4,-12 8,-23 11,-34 3,-11 5,-22 7,-33 -24,-16 -49,-32 -74,-48 -26,-16 -51,-33 -77,-50 -6,1 -13,4 -20,10 -8,6 -15,11 -23,14 -4,5 -9,9 -15,12 -6,3 -11,7 -16,13 0,2 0,3 1,4 1,1 2,3 3,4 1,1 1,3 -1,5 -1,2 -2,4 -3,6 -5,4 -10,4 -16,0 -6,-4 -11,-4 -15,0 -3,1 -5,2 -6,3 -1,1 -3,2 -5,4 -4,1 -7,-1 -11,-7 1,-3 3,-5 5,-7 2,-2 4,-4 5,-7 -9,-12 -20,-22 -35,-30 -14,-8 -28,-17 -40,-28 -3,-2 -5,-2 -7,1 -2,3 -4,4 -8,5 -4,0 -9,1 -13,2 -5,1 -9,-1 -12,-7 1,-2 3,-5 7,-8 3,-3 6,-6 8,-8 1,-2 0,-4 -4,-9 -1,-2 0,-3 1,-5 1,-1 2,-3 4,-5 4,-1 7,0 10,3 3,3 7,5 11,8 7,1 13,-1 18,-6 6,-6 12,-10 17,-14 9,-5 18,-10 27,-16 8,-6 17,-12 26,-19 50,-28 101,-60 153,-96 52,-36 103,-69 154,-100 12,-10 25,-19 37,-25 13,-7 25,-15 37,-24 0,-1 -1,-3 -1,-4 -1,-2 -2,-2 -5,-2 -2,-1 -3,-4 -4,-6 -1,-3 0,-5 3,-7 3,-1 7,-1 11,2 4,2 8,5 12,8 5,-1 9,-3 12,-6 4,-3 8,-6 14,-7 1,-1 3,-1 5,-1 2,0 3,1 3,3 -2,5 -4,8 -7,10 -3,2 -6,4 -9,8 9,10 20,19 33,27 13,8 26,15 39,21 4,-2 7,-6 8,-13 1,-7 5,-11 11,-13 -1,11 -1,21 -1,31 1,10 8,18 21,26 2,1 1,3 -1,5 -2,2 -5,4 -6,5 -3,0 -6,-2 -9,-5 -3,-3 -7,-5 -12,-5 -7,15 -12,31 -15,50 -3,19 -9,36 -17,52 0,5 -1,9 -4,15 -3,5 -5,11 -6,16 -5,22 -12,43 -19,65 -7,21 -14,43 -19,66 -5,26 -13,53 -23,81 -10,28 -20,55 -28,81 -3,12 -7,25 -12,37 -5,12 -9,25 -10,37 -2,4 -3,8 -4,13 -1,5 -2,10 -5,15 -1,1 -1,4 -1,7 0,3 2,5 6,6 2,3 4,5 8,5 4,1 6,3 9,7 1,2 0,5 -1,7 -2,2 -4,4 -7,7 -3,2 -6,2 -9,-1 -3,-2 -7,-4 -10,-5 -2,-1 -3,0 -4,1 -1,2 -2,3 -4,4 -3,1 -5,2 -8,2 -3,1 -6,-1 -9,-5 0,-3 1,-5 2,-8 1,-3 2,-6 2,-9 -9,-11 -20,-20 -33,-28 -13,-8 -26,-16 -39,-25 -3,1 -7,3 -11,8 -4,5 -8,6 -11,4zm-1551 -1089l1662 1228 -21 28 -1662 -1228 21 -28z"/>
  </g>
  <path class="fil2" d="M10041 18l137 101 -248 335 215 159 -81 109 -352 -260 329 -445zm413 880l-156 -115 -77 57 -140 -104 496 -321 150 111 -162 568 -144 -106 32 -90zm42 -118l70 -196 -167 124 97 72zm442 -98l257 190c43,32 68,67 75,105 7,38 -1,73 -24,104 -19,26 -44,43 -75,49 -20,5 -44,3 -70,-6 26,31 40,62 41,92 1,30 -9,59 -30,87 -17,23 -38,40 -62,50 -24,10 -50,14 -76,11 -16,-2 -37,-10 -63,-24 -34,-19 -56,-32 -66,-39l-237 -175 329 -445zm10 277l60 44c21,16 39,23 53,22 14,-1 26,-9 36,-23 10,-13 13,-26 10,-40 -3,-14 -15,-28 -36,-43l-61 -45 -62 84zm-129 174l70 52c24,18 43,26 59,24 16,-1 29,-9 40,-23 10,-13 13,-27 9,-42 -4,-15 -18,-32 -42,-49l-70 -52 -67 90z"/>
  <g id="_350145984">
   <sodipodi:namedview bordercolor="#666666" borderopacity="1.0" id="base" inkscape:current-layer="layer1" inkscape:cx="125.00000" inkscape:cy="156.25000" inkscape:document-units="px" inkscape:pageopacity="0.0" inkscape:pageshadow="2" inkscape:window-height="695" inkscape:window-width="1024" inkscape:window-x="0" inkscape:window-y="26" inkscape:zoom="1.6480000" pagecolor="#ffffff" showguides="false"/>
   <g id="layer1" inkscape:groupmode="layer" inkscape:label="Layer 1">
    <g id="g2651">
     <path id="path29274" class="fil3" d="M11512 770l9 61c-64,86 -100,135 -165,224 -50,18 -381,179 -566,273 -58,30 -102,89 -101,162 -3,53 30,95 71,125 141,104 283,209 424,313 41,30 91,49 141,31 70,-21 114,-80 125,-144 44,-198 75,-406 119,-604 64,-86 101,-137 165,-224l59 -9 2 0 -283 -209z"/>
     <path id="path6798" class="fil4" d="M11246 1140c-114,51 -312,145 -437,206 -54,26 -93,80 -91,147 -2,48 29,87 68,116 132,98 265,196 397,293 39,29 85,46 131,31 65,-18 104,-71 113,-130 32,-153 56,-312 85,-467l-265 -196z"/>
     <path id="path6038" class="fil5" d="M11692 956c-56,76 -113,152 -169,228 -42,214 -84,428 -126,642 -16,65 -84,103 -148,95 -60,-3 -102,-50 -149,-82 -32,-24 -64,-47 -96,-71 63,35 123,77 188,108 46,16 106,29 142,-15 38,-46 38,-109 54,-165 40,-175 80,-350 120,-525 56,-76 113,-152 169,-228l52 -8 17 12 -52 8z" sodipodi:nodetypes="cccccccccccccc"/>
     <path id="path1613" class="fil6" d="M11542 845c-56,76 -113,152 -169,228 -192,103 -389,180 -581,284 -57,34 -90,113 -70,173 26,51 17,38 60,78 32,24 153,110 185,134 -52,-50 -110,-95 -158,-148 -29,-39 -59,-93 -28,-140 33,-50 93,-68 141,-100 155,-89 311,-179 467,-268 56,-76 113,-152 169,-228l-8 -52 -17 -12 8 52z" sodipodi:nodetypes="cccccccccccccc"/>
    </g>
   </g>
  </g>
 </g>
</svg>
