<?xml version="1.0" encoding="UTF-8"?>
<!DOCTYPE svg PUBLIC "-//W3C//DTD SVG 1.0//EN" "http://www.w3.org/TR/2001/REC-SVG-20010904/DTD/svg10.dtd">
<!-- Creator: CorelDRAW X6 -->
<svg xmlns="http://www.w3.org/2000/svg" xml:space="preserve" width="235.615mm" height="32.7684mm" version="1.0" style="shape-rendering:geometricPrecision; text-rendering:geometricPrecision; image-rendering:optimizeQuality; fill-rule:evenodd; clip-rule:evenodd"
viewBox="0 0 30880 4295"
 xmlns:xlink="http://www.w3.org/1999/xlink">
 <defs>
  <style type="text/css">
   <![CDATA[
    .fil0 {fill:#2E94D2}
    .fil1 {fill:white}
   ]]>
  </style>
 </defs>
 <g id="Layer_x0020_1">
  <metadata id="CorelCorpID_0Corel-Layer"/>
  <path class="fil0" d="M8272 3644l0 -3396 2714 0 0 814 -1623 0 0 452 1372 0 0 779 -1372 0 0 525 1690 0 0 826 -2780 0zm-3739 -3396l1116 0 571 2193 614 -2193 1072 0 -1144 3396 -1086 0 -1144 -3396zm-1496 3396l0 -3396 1111 0 0 3396 -1111 0zm-3037 0l0 -3396 1091 0 0 2494 1483 0 0 902 -2574 0zm17192 -3637c-1199,99 -1923,1138 -1617,2319 306,1182 1525,2059 2724,1960 926,-77 1568,-714 1672,-1544 -171,596 -685,1034 -1392,1092 -1033,86 -2084,-671 -2347,-1689 -263,-1018 360,-1913 1393,-1998 288,-24 577,18 850,112 -400,-194 -843,-289 -1284,-253l0 0z"/>
  <path class="fil1" d="M20265 3644l0 -3396 1393 0c300,0 518,8 655,23 137,16 254,41 353,76 172,65 304,165 396,302 91,137 137,303 137,498 0,153 -34,288 -102,402 -68,115 -172,209 -308,283 180,64 313,161 399,290 86,129 129,297 129,502 0,201 -42,376 -126,525 -84,148 -206,262 -365,342 -108,55 -231,94 -369,117 -138,23 -367,35 -686,35l-1504 0zm1058 -2040l449 0c151,0 258,-22 319,-67 61,-45 92,-120 92,-226 0,-113 -33,-189 -99,-231 -66,-42 -219,-62 -459,-62l-302 0 0 585 0 0zm0 1247l505 0c167,0 287,-24 357,-74 71,-49 106,-130 106,-242 0,-112 -36,-192 -109,-239 -72,-48 -193,-72 -364,-72l-496 0 0 626 0 0zm2354 793l0 -3396 1111 0 0 3396 -1111 0zm1590 0l0 -3396 1091 0 0 2494 1483 0 0 902 -2573 0zm2833 0l0 -3396 2714 0 0 814 -1623 0 0 452 1372 0 0 779 -1372 0 0 525 1689 0 0 826 -2780 0zm-15708 0l-987 0 0 -3396 1329 0 470 1694c6,23 19,75 37,158 18,82 45,195 79,340 21,-114 41,-213 60,-299 18,-85 35,-149 48,-192l482 -1701 1326 0 0 3396 -987 0 9 -1672c0,-101 0,-200 1,-296 1,-96 2,-196 4,-299 -37,176 -82,367 -134,574l-7 30 -419 1662 -761 0 -424 -1625c-20,-74 -40,-158 -60,-253 -20,-96 -47,-225 -79,-388 5,146 9,271 11,376 2,105 3,188 3,251l0 1639zm6373 85c891,-139 1381,-959 1102,-1886 -291,-968 -1311,-1688 -2278,-1606 -637,54 -1092,441 -1245,977 316,-409 738,-641 1263,-609l13 0c950,0 1775,758 1844,1692 44,604 -238,1133 -699,1433z"/>
 </g>
</svg>
